set NETWORK := 76;

set NODE := 76-N32 76-N1 76-N321 76-N2 76-N322 76-N3 76-N11 76-N12 76-N111 76-N112 76-N211 76-N212 76-N21 76-N22 76-N311 76-N312 76-N121 76-N122 76-N221 76-N222 76-N31;

set VNF := STAR SQUARE CIRCLE TRIANGLE HEART DIAMOND SPADE OVAL;

set FLOW := F1 F2 F3 F4 F5 F6 F7 F8 F9 F10 F11 F12 F13 F14 F15 F16 F17 F18 F19 F20 F21 F22 F23 F24 F25 F26 F27 F28 F29 F30 F31 F32 F33 F34 F35 F36 F37 F38 F39 F40 F41 F42 F43 F44 F45 F46 F47 F48 F49 F50 F51 F52 F53 F54 F55 F56 F57 F58 F59 F60 F61 F62 F63 F64 F65 F66 F67 F68 F69 F70 F71 F72 F73 F74 F75 F76;

param net := 76 1;

param capacity := 76-N32 100000 76-N1 100000 76-N321 100000 76-N2 100000 76-N322 100000 76-N3 100000 76-N11 100000 76-N12 100000 76-N111 100000 76-N112 100000 76-N211 100000 76-N212 100000 76-N21 100000 76-N22 100000 76-N311 100000 76-N312 100000 76-N121 100000 76-N122 100000 76-N221 100000 76-N222 100000 76-N31 100000;

param static_load :=
 STAR 1000 SQUARE 1000 CIRCLE 1000 TRIANGLE 1000 HEART 1000 DIAMOND 1000 SPADE 1000 OVAL 1000;

param dynamic_load :=
 STAR 10 SQUARE 10 CIRCLE 10 TRIANGLE 10 HEART 10 DIAMOND 10 SPADE 10 OVAL 10;

param path:  76-N32 76-N1 76-N321 76-N2 76-N322 76-N3 76-N11 76-N12 76-N111 76-N112 76-N211 76-N212 76-N21 76-N22 76-N311 76-N312 76-N121 76-N122 76-N221 76-N222 76-N31:= 
F1 0 0 1 0 3 0 0 0 0 0 0 0 0 0 0 0 0 0 0 0 2
F2 0 3 1 0 0 0 4 0 5 0 0 0 0 0 0 0 0 0 0 0 2
F3 0 3 1 0 0 0 4 0 0 5 0 0 0 0 0 0 0 0 0 0 2
F4 0 3 1 0 0 0 0 0 0 0 5 0 4 0 0 0 0 0 0 0 2
F5 0 3 1 0 0 0 0 0 0 0 0 5 4 0 0 0 0 0 0 0 2
F6 0 0 1 0 0 0 0 0 0 0 0 0 0 0 3 0 0 0 0 0 2
F7 0 0 1 0 0 0 0 0 0 0 0 0 0 0 0 3 0 0 0 0 2
F8 0 3 1 0 0 0 4 0 0 0 0 0 0 0 0 0 5 0 0 0 2
F9 0 3 1 0 0 0 4 0 0 0 0 0 0 0 0 0 0 5 0 0 2
F10 0 3 1 0 0 0 0 0 0 0 0 0 4 0 0 0 0 0 5 0 2
F11 0 3 1 0 0 0 0 0 0 0 0 0 4 0 0 0 0 0 0 5 2
F12 0 0 3 0 1 0 0 0 0 0 0 0 0 0 0 0 0 0 0 0 2
F13 0 3 0 0 1 0 4 0 5 0 0 0 0 0 0 0 0 0 0 0 2
F14 0 3 0 0 1 0 4 0 0 5 0 0 0 0 0 0 0 0 0 0 2
F15 0 3 0 0 1 0 0 0 0 0 5 0 4 0 0 0 0 0 0 0 2
F16 0 3 0 0 1 0 0 0 0 0 0 5 4 0 0 0 0 0 0 0 2
F17 0 0 0 0 1 0 0 0 0 0 0 0 0 0 3 0 0 0 0 0 2
F18 0 0 0 0 1 0 0 0 0 0 0 0 0 0 0 3 0 0 0 0 2
F19 0 3 0 0 1 0 4 0 0 0 0 0 0 0 0 0 5 0 0 0 2
F20 0 3 0 0 1 0 4 0 0 0 0 0 0 0 0 0 0 5 0 0 2
F21 0 3 0 0 1 0 0 0 0 0 0 0 4 0 0 0 0 0 5 0 2
F22 0 3 0 0 1 0 0 0 0 0 0 0 4 0 0 0 0 0 0 5 2
F23 0 3 5 0 0 0 2 0 1 0 0 0 0 0 0 0 0 0 0 0 4
F24 0 3 0 0 5 0 2 0 1 0 0 0 0 0 0 0 0 0 0 0 4
F25 0 0 0 0 0 0 2 0 1 3 0 0 0 0 0 0 0 0 0 0 0
F26 0 3 0 0 0 0 2 0 1 0 5 0 4 0 0 0 0 0 0 0 0
F27 0 3 0 0 0 0 2 0 1 0 0 5 4 0 0 0 0 0 0 0 0
F28 0 3 0 0 0 0 2 0 1 0 0 0 0 0 5 0 0 0 0 0 4
F29 0 3 0 0 0 0 2 0 1 0 0 0 0 0 0 5 0 0 0 0 4
F30 0 0 0 0 0 0 2 0 1 0 0 0 0 0 0 0 3 0 0 0 0
F31 0 0 0 0 0 0 2 0 1 0 0 0 0 0 0 0 0 3 0 0 0
F32 0 3 0 0 0 0 2 0 1 0 0 0 4 0 0 0 0 0 5 0 0
F33 0 3 0 0 0 0 2 0 1 0 0 0 4 0 0 0 0 0 0 5 0
F34 0 3 5 0 0 0 2 0 0 1 0 0 0 0 0 0 0 0 0 0 4
F35 0 3 0 0 5 0 2 0 0 1 0 0 0 0 0 0 0 0 0 0 4
F36 0 0 0 0 0 0 2 0 3 1 0 0 0 0 0 0 0 0 0 0 0
F37 0 3 0 0 0 0 2 0 0 1 5 0 4 0 0 0 0 0 0 0 0
F38 0 3 0 0 0 0 2 0 0 1 0 5 4 0 0 0 0 0 0 0 0
F39 0 3 0 0 0 0 2 0 0 1 0 0 0 0 5 0 0 0 0 0 4
F40 0 3 0 0 0 0 2 0 0 1 0 0 0 0 0 5 0 0 0 0 4
F41 0 0 0 0 0 0 2 0 0 1 0 0 0 0 0 0 3 0 0 0 0
F42 0 0 0 0 0 0 2 0 0 1 0 0 0 0 0 0 0 3 0 0 0
F43 0 3 0 0 0 0 2 0 0 1 0 0 4 0 0 0 0 0 5 0 0
F44 0 3 0 0 0 0 2 0 0 1 0 0 4 0 0 0 0 0 0 5 0
F45 0 3 5 0 0 0 0 0 0 0 1 0 2 0 0 0 0 0 0 0 4
F46 0 3 0 0 5 0 0 0 0 0 1 0 2 0 0 0 0 0 0 0 4
F47 0 3 0 0 0 0 4 0 5 0 1 0 2 0 0 0 0 0 0 0 0
F48 0 3 0 0 0 0 4 0 0 5 1 0 2 0 0 0 0 0 0 0 0
F49 0 0 0 0 0 0 0 0 0 0 1 3 2 0 0 0 0 0 0 0 0
F50 0 3 0 0 0 0 0 0 0 0 1 0 2 0 5 0 0 0 0 0 4
F51 0 3 0 0 0 0 0 0 0 0 1 0 2 0 0 5 0 0 0 0 4
F52 0 3 0 0 0 0 4 0 0 0 1 0 2 0 0 0 5 0 0 0 0
F53 0 3 0 0 0 0 4 0 0 0 1 0 2 0 0 0 0 5 0 0 0
F54 0 0 0 0 0 0 0 0 0 0 1 0 2 0 0 0 0 0 3 0 0
F55 0 0 0 0 0 0 0 0 0 0 1 0 2 0 0 0 0 0 0 3 0
F56 0 3 5 0 0 0 0 0 0 0 0 1 2 0 0 0 0 0 0 0 4
F57 0 3 0 0 5 0 0 0 0 0 0 1 2 0 0 0 0 0 0 0 4
F58 0 3 0 0 0 0 4 0 5 0 0 1 2 0 0 0 0 0 0 0 0
F59 0 3 0 0 0 0 4 0 0 5 0 1 2 0 0 0 0 0 0 0 0
F60 0 0 0 0 0 0 0 0 0 0 3 1 2 0 0 0 0 0 0 0 0
F61 0 3 0 0 0 0 0 0 0 0 0 1 2 0 5 0 0 0 0 0 4
F62 0 3 0 0 0 0 0 0 0 0 0 1 2 0 0 5 0 0 0 0 4
F63 0 3 0 0 0 0 4 0 0 0 0 1 2 0 0 0 5 0 0 0 0
F64 0 3 0 0 0 0 4 0 0 0 0 1 2 0 0 0 0 5 0 0 0
F65 0 0 0 0 0 0 0 0 0 0 0 1 2 0 0 0 0 0 3 0 0
F66 0 0 0 0 0 0 0 0 0 0 0 1 2 0 0 0 0 0 0 3 0
F67 0 0 3 0 0 0 0 0 0 0 0 0 0 0 1 0 0 0 0 0 2
F68 0 0 0 0 3 0 0 0 0 0 0 0 0 0 1 0 0 0 0 0 2
F69 0 3 0 0 0 0 4 0 5 0 0 0 0 0 1 0 0 0 0 0 2
F70 0 3 0 0 0 0 4 0 0 5 0 0 0 0 1 0 0 0 0 0 2
F71 0 3 0 0 0 0 0 0 0 0 5 0 4 0 1 0 0 0 0 0 2
F72 0 3 0 0 0 0 0 0 0 0 0 5 4 0 1 0 0 0 0 0 2
F73 0 0 0 0 0 0 0 0 0 0 0 0 0 0 1 3 0 0 0 0 2
F74 0 3 0 0 0 0 4 0 0 0 0 0 0 0 1 0 5 0 0 0 2
F75 0 3 0 0 0 0 4 0 0 0 0 0 0 0 1 0 0 5 0 0 2
F76 0 3 0 0 0 0 0 0 0 0 0 0 4 0 1 0 0 0 5 0 2;

param order:  STAR SQUARE CIRCLE TRIANGLE HEART DIAMOND SPADE OVAL:= 
F1 7 3 1 8 5 2 6 4
F2 6 2 1 7 4 3 8 5
F3 2 6 5 3 8 7 4 1
F4 8 4 2 7 6 1 5 3
F5 5 1 2 8 3 4 7 6
F6 1 5 3 2 7 4 8 6
F7 3 7 8 2 5 6 1 4
F8 2 3 4 7 5 6 8 1
F9 7 3 1 8 5 2 6 4
F10 6 2 1 7 4 3 8 5
F11 2 6 5 3 8 7 4 1
F12 8 4 2 7 6 1 5 3
F13 5 1 2 8 3 4 7 6
F14 1 5 3 2 7 4 8 6
F15 3 7 8 2 5 6 1 4
F16 2 3 4 7 5 6 8 1
F17 7 3 1 8 5 2 6 4
F18 6 2 1 7 4 3 8 5
F19 2 6 5 3 8 7 4 1
F20 8 4 2 7 6 1 5 3
F21 5 1 2 8 3 4 7 6
F22 1 5 3 2 7 4 8 6
F23 3 7 8 2 5 6 1 4
F24 2 3 4 7 5 6 8 1
F25 7 3 1 8 5 2 6 4
F26 6 2 1 7 4 3 8 5
F27 2 6 5 3 8 7 4 1
F28 8 4 2 7 6 1 5 3
F29 5 1 2 8 3 4 7 6
F30 1 5 3 2 7 4 8 6
F31 3 7 8 2 5 6 1 4
F32 2 3 4 7 5 6 8 1
F33 7 3 1 8 5 2 6 4
F34 6 2 1 7 4 3 8 5
F35 2 6 5 3 8 7 4 1
F36 8 4 2 7 6 1 5 3
F37 5 1 2 8 3 4 7 6
F38 1 5 3 2 7 4 8 6
F39 3 7 8 2 5 6 1 4
F40 2 3 4 7 5 6 8 1
F41 7 3 1 8 5 2 6 4
F42 6 2 1 7 4 3 8 5
F43 2 6 5 3 8 7 4 1
F44 8 4 2 7 6 1 5 3
F45 5 1 2 8 3 4 7 6
F46 1 5 3 2 7 4 8 6
F47 3 7 8 2 5 6 1 4
F48 2 3 4 7 5 6 8 1
F49 7 3 1 8 5 2 6 4
F50 6 2 1 7 4 3 8 5
F51 2 6 5 3 8 7 4 1
F52 8 4 2 7 6 1 5 3
F53 5 1 2 8 3 4 7 6
F54 1 5 3 2 7 4 8 6
F55 3 7 8 2 5 6 1 4
F56 2 3 4 7 5 6 8 1
F57 7 3 1 8 5 2 6 4
F58 6 2 1 7 4 3 8 5
F59 2 6 5 3 8 7 4 1
F60 8 4 2 7 6 1 5 3
F61 5 1 2 8 3 4 7 6
F62 1 5 3 2 7 4 8 6
F63 3 7 8 2 5 6 1 4
F64 2 3 4 7 5 6 8 1
F65 7 3 1 8 5 2 6 4
F66 6 2 1 7 4 3 8 5
F67 2 6 5 3 8 7 4 1
F68 8 4 2 7 6 1 5 3
F69 5 1 2 8 3 4 7 6
F70 1 5 3 2 7 4 8 6
F71 3 7 8 2 5 6 1 4
F72 2 3 4 7 5 6 8 1
F73 7 3 1 8 5 2 6 4
F74 6 2 1 7 4 3 8 5
F75 2 6 5 3 8 7 4 1
F76 8 4 2 7 6 1 5 3;

param rate := 
 F1 100 F2 100 F3 100 F4 100 F5 100 F6 100 F7 100 F8 100 F9 100 F10 100 F11 100 F12 100 F13 100 F14 100 F15 100 F16 100 F17 100 F18 100 F19 100 F20 100 F21 100 F22 100 F23 100 F24 100 F25 100 F26 100 F27 100 F28 100 F29 100 F30 100 F31 100 F32 100 F33 100 F34 100 F35 100 F36 100 F37 100 F38 100 F39 100 F40 100 F41 100 F42 100 F43 100 F44 100 F45 100 F46 100 F47 100 F48 100 F49 100 F50 100 F51 100 F52 100 F53 100 F54 100 F55 100 F56 100 F57 100 F58 100 F59 100 F60 100 F61 100 F62 100 F63 100 F64 100 F65 100 F66 100 F67 100 F68 100 F69 100 F70 100 F71 100 F72 100 F73 100 F74 100 F75 100 F76 100;

