set NETWORK := 132;

set NODE := 132-N32 132-N1 132-N321 132-N2 132-N322 132-N3 132-N11 132-N12 132-N111 132-N112 132-N211 132-N212 132-N21 132-N22 132-N311 132-N312 132-N121 132-N122 132-N221 132-N222 132-N31;

set VNF := STAR SQUARE CIRCLE TRIANGLE HEART DIAMOND SPADE OVAL;

set FLOW := F1 F2 F3 F4 F5 F6 F7 F8 F9 F10 F11 F12 F13 F14 F15 F16 F17 F18 F19 F20 F21 F22 F23 F24 F25 F26 F27 F28 F29 F30 F31 F32 F33 F34 F35 F36 F37 F38 F39 F40 F41 F42 F43 F44 F45 F46 F47 F48 F49 F50 F51 F52 F53 F54 F55 F56 F57 F58 F59 F60 F61 F62 F63 F64 F65 F66 F67 F68 F69 F70 F71 F72 F73 F74 F75 F76 F77 F78 F79 F80 F81 F82 F83 F84 F85 F86 F87 F88 F89 F90 F91 F92 F93 F94 F95 F96 F97 F98 F99 F100 F101 F102 F103 F104 F105 F106 F107 F108 F109 F110 F111 F112 F113 F114 F115 F116 F117 F118 F119 F120 F121 F122 F123 F124 F125 F126 F127 F128 F129 F130 F131 F132;

param net := 132 1;

param capacity := 132-N32 100000 132-N1 100000 132-N321 100000 132-N2 100000 132-N322 100000 132-N3 100000 132-N11 100000 132-N12 100000 132-N111 100000 132-N112 100000 132-N211 100000 132-N212 100000 132-N21 100000 132-N22 100000 132-N311 100000 132-N312 100000 132-N121 100000 132-N122 100000 132-N221 100000 132-N222 100000 132-N31 100000;

param static_load :=
 STAR 1000 SQUARE 1000 CIRCLE 1000 TRIANGLE 1000 HEART 1000 DIAMOND 1000 SPADE 1000 OVAL 1000;

param dynamic_load :=
 STAR 10 SQUARE 10 CIRCLE 10 TRIANGLE 10 HEART 10 DIAMOND 10 SPADE 10 OVAL 10;

param path:  132-N32 132-N1 132-N321 132-N2 132-N322 132-N3 132-N11 132-N12 132-N111 132-N112 132-N211 132-N212 132-N21 132-N22 132-N311 132-N312 132-N121 132-N122 132-N221 132-N222 132-N31:= 
F1 0 0 1 0 3 0 0 0 0 0 0 0 0 0 0 0 0 0 0 0 2
F2 0 3 1 0 0 0 4 0 5 0 0 0 0 0 0 0 0 0 0 0 2
F3 0 3 1 0 0 0 4 0 0 5 0 0 0 0 0 0 0 0 0 0 2
F4 0 3 1 0 0 0 0 0 0 0 5 0 4 0 0 0 0 0 0 0 2
F5 0 3 1 0 0 0 0 0 0 0 0 5 4 0 0 0 0 0 0 0 2
F6 0 0 1 0 0 0 0 0 0 0 0 0 0 0 3 0 0 0 0 0 2
F7 0 0 1 0 0 0 0 0 0 0 0 0 0 0 0 3 0 0 0 0 2
F8 0 3 1 0 0 0 4 0 0 0 0 0 0 0 0 0 5 0 0 0 2
F9 0 3 1 0 0 0 4 0 0 0 0 0 0 0 0 0 0 5 0 0 2
F10 0 3 1 0 0 0 0 0 0 0 0 0 4 0 0 0 0 0 5 0 2
F11 0 3 1 0 0 0 0 0 0 0 0 0 4 0 0 0 0 0 0 5 2
F12 0 0 3 0 1 0 0 0 0 0 0 0 0 0 0 0 0 0 0 0 2
F13 0 3 0 0 1 0 4 0 5 0 0 0 0 0 0 0 0 0 0 0 2
F14 0 3 0 0 1 0 4 0 0 5 0 0 0 0 0 0 0 0 0 0 2
F15 0 3 0 0 1 0 0 0 0 0 5 0 4 0 0 0 0 0 0 0 2
F16 0 3 0 0 1 0 0 0 0 0 0 5 4 0 0 0 0 0 0 0 2
F17 0 0 0 0 1 0 0 0 0 0 0 0 0 0 3 0 0 0 0 0 2
F18 0 0 0 0 1 0 0 0 0 0 0 0 0 0 0 3 0 0 0 0 2
F19 0 3 0 0 1 0 4 0 0 0 0 0 0 0 0 0 5 0 0 0 2
F20 0 3 0 0 1 0 4 0 0 0 0 0 0 0 0 0 0 5 0 0 2
F21 0 3 0 0 1 0 0 0 0 0 0 0 4 0 0 0 0 0 5 0 2
F22 0 3 0 0 1 0 0 0 0 0 0 0 4 0 0 0 0 0 0 5 2
F23 0 3 5 0 0 0 2 0 1 0 0 0 0 0 0 0 0 0 0 0 4
F24 0 3 0 0 5 0 2 0 1 0 0 0 0 0 0 0 0 0 0 0 4
F25 0 0 0 0 0 0 2 0 1 3 0 0 0 0 0 0 0 0 0 0 0
F26 0 3 0 0 0 0 2 0 1 0 5 0 4 0 0 0 0 0 0 0 0
F27 0 3 0 0 0 0 2 0 1 0 0 5 4 0 0 0 0 0 0 0 0
F28 0 3 0 0 0 0 2 0 1 0 0 0 0 0 5 0 0 0 0 0 4
F29 0 3 0 0 0 0 2 0 1 0 0 0 0 0 0 5 0 0 0 0 4
F30 0 0 0 0 0 0 2 0 1 0 0 0 0 0 0 0 3 0 0 0 0
F31 0 0 0 0 0 0 2 0 1 0 0 0 0 0 0 0 0 3 0 0 0
F32 0 3 0 0 0 0 2 0 1 0 0 0 4 0 0 0 0 0 5 0 0
F33 0 3 0 0 0 0 2 0 1 0 0 0 4 0 0 0 0 0 0 5 0
F34 0 3 5 0 0 0 2 0 0 1 0 0 0 0 0 0 0 0 0 0 4
F35 0 3 0 0 5 0 2 0 0 1 0 0 0 0 0 0 0 0 0 0 4
F36 0 0 0 0 0 0 2 0 3 1 0 0 0 0 0 0 0 0 0 0 0
F37 0 3 0 0 0 0 2 0 0 1 5 0 4 0 0 0 0 0 0 0 0
F38 0 3 0 0 0 0 2 0 0 1 0 5 4 0 0 0 0 0 0 0 0
F39 0 3 0 0 0 0 2 0 0 1 0 0 0 0 5 0 0 0 0 0 4
F40 0 3 0 0 0 0 2 0 0 1 0 0 0 0 0 5 0 0 0 0 4
F41 0 0 0 0 0 0 2 0 0 1 0 0 0 0 0 0 3 0 0 0 0
F42 0 0 0 0 0 0 2 0 0 1 0 0 0 0 0 0 0 3 0 0 0
F43 0 3 0 0 0 0 2 0 0 1 0 0 4 0 0 0 0 0 5 0 0
F44 0 3 0 0 0 0 2 0 0 1 0 0 4 0 0 0 0 0 0 5 0
F45 0 3 5 0 0 0 0 0 0 0 1 0 2 0 0 0 0 0 0 0 4
F46 0 3 0 0 5 0 0 0 0 0 1 0 2 0 0 0 0 0 0 0 4
F47 0 3 0 0 0 0 4 0 5 0 1 0 2 0 0 0 0 0 0 0 0
F48 0 3 0 0 0 0 4 0 0 5 1 0 2 0 0 0 0 0 0 0 0
F49 0 0 0 0 0 0 0 0 0 0 1 3 2 0 0 0 0 0 0 0 0
F50 0 3 0 0 0 0 0 0 0 0 1 0 2 0 5 0 0 0 0 0 4
F51 0 3 0 0 0 0 0 0 0 0 1 0 2 0 0 5 0 0 0 0 4
F52 0 3 0 0 0 0 4 0 0 0 1 0 2 0 0 0 5 0 0 0 0
F53 0 3 0 0 0 0 4 0 0 0 1 0 2 0 0 0 0 5 0 0 0
F54 0 0 0 0 0 0 0 0 0 0 1 0 2 0 0 0 0 0 3 0 0
F55 0 0 0 0 0 0 0 0 0 0 1 0 2 0 0 0 0 0 0 3 0
F56 0 3 5 0 0 0 0 0 0 0 0 1 2 0 0 0 0 0 0 0 4
F57 0 3 0 0 5 0 0 0 0 0 0 1 2 0 0 0 0 0 0 0 4
F58 0 3 0 0 0 0 4 0 5 0 0 1 2 0 0 0 0 0 0 0 0
F59 0 3 0 0 0 0 4 0 0 5 0 1 2 0 0 0 0 0 0 0 0
F60 0 0 0 0 0 0 0 0 0 0 3 1 2 0 0 0 0 0 0 0 0
F61 0 3 0 0 0 0 0 0 0 0 0 1 2 0 5 0 0 0 0 0 4
F62 0 3 0 0 0 0 0 0 0 0 0 1 2 0 0 5 0 0 0 0 4
F63 0 3 0 0 0 0 4 0 0 0 0 1 2 0 0 0 5 0 0 0 0
F64 0 3 0 0 0 0 4 0 0 0 0 1 2 0 0 0 0 5 0 0 0
F65 0 0 0 0 0 0 0 0 0 0 0 1 2 0 0 0 0 0 3 0 0
F66 0 0 0 0 0 0 0 0 0 0 0 1 2 0 0 0 0 0 0 3 0
F67 0 0 3 0 0 0 0 0 0 0 0 0 0 0 1 0 0 0 0 0 2
F68 0 0 0 0 3 0 0 0 0 0 0 0 0 0 1 0 0 0 0 0 2
F69 0 3 0 0 0 0 4 0 5 0 0 0 0 0 1 0 0 0 0 0 2
F70 0 3 0 0 0 0 4 0 0 5 0 0 0 0 1 0 0 0 0 0 2
F71 0 3 0 0 0 0 0 0 0 0 5 0 4 0 1 0 0 0 0 0 2
F72 0 3 0 0 0 0 0 0 0 0 0 5 4 0 1 0 0 0 0 0 2
F73 0 0 0 0 0 0 0 0 0 0 0 0 0 0 1 3 0 0 0 0 2
F74 0 3 0 0 0 0 4 0 0 0 0 0 0 0 1 0 5 0 0 0 2
F75 0 3 0 0 0 0 4 0 0 0 0 0 0 0 1 0 0 5 0 0 2
F76 0 3 0 0 0 0 0 0 0 0 0 0 4 0 1 0 0 0 5 0 2
F77 0 3 0 0 0 0 0 0 0 0 0 0 4 0 1 0 0 0 0 5 2
F78 0 0 3 0 0 0 0 0 0 0 0 0 0 0 0 1 0 0 0 0 2
F79 0 0 0 0 3 0 0 0 0 0 0 0 0 0 0 1 0 0 0 0 2
F80 0 3 0 0 0 0 4 0 5 0 0 0 0 0 0 1 0 0 0 0 2
F81 0 3 0 0 0 0 4 0 0 5 0 0 0 0 0 1 0 0 0 0 2
F82 0 3 0 0 0 0 0 0 0 0 5 0 4 0 0 1 0 0 0 0 2
F83 0 3 0 0 0 0 0 0 0 0 0 5 4 0 0 1 0 0 0 0 2
F84 0 0 0 0 0 0 0 0 0 0 0 0 0 0 3 1 0 0 0 0 2
F85 0 3 0 0 0 0 4 0 0 0 0 0 0 0 0 1 5 0 0 0 2
F86 0 3 0 0 0 0 4 0 0 0 0 0 0 0 0 1 0 5 0 0 2
F87 0 3 0 0 0 0 0 0 0 0 0 0 4 0 0 1 0 0 5 0 2
F88 0 3 0 0 0 0 0 0 0 0 0 0 4 0 0 1 0 0 0 5 2
F89 0 3 5 0 0 0 2 0 0 0 0 0 0 0 0 0 1 0 0 0 4
F90 0 3 0 0 5 0 2 0 0 0 0 0 0 0 0 0 1 0 0 0 4
F91 0 0 0 0 0 0 2 0 3 0 0 0 0 0 0 0 1 0 0 0 0
F92 0 0 0 0 0 0 2 0 0 3 0 0 0 0 0 0 1 0 0 0 0
F93 0 3 0 0 0 0 2 0 0 0 5 0 4 0 0 0 1 0 0 0 0
F94 0 3 0 0 0 0 2 0 0 0 0 5 4 0 0 0 1 0 0 0 0
F95 0 3 0 0 0 0 2 0 0 0 0 0 0 0 5 0 1 0 0 0 4
F96 0 3 0 0 0 0 2 0 0 0 0 0 0 0 0 5 1 0 0 0 4
F97 0 0 0 0 0 0 2 0 0 0 0 0 0 0 0 0 1 3 0 0 0
F98 0 3 0 0 0 0 2 0 0 0 0 0 4 0 0 0 1 0 5 0 0
F99 0 3 0 0 0 0 2 0 0 0 0 0 4 0 0 0 1 0 0 5 0
F100 0 3 5 0 0 0 2 0 0 0 0 0 0 0 0 0 0 1 0 0 4
F101 0 3 0 0 5 0 2 0 0 0 0 0 0 0 0 0 0 1 0 0 4
F102 0 0 0 0 0 0 2 0 3 0 0 0 0 0 0 0 0 1 0 0 0
F103 0 0 0 0 0 0 2 0 0 3 0 0 0 0 0 0 0 1 0 0 0
F104 0 3 0 0 0 0 2 0 0 0 5 0 4 0 0 0 0 1 0 0 0
F105 0 3 0 0 0 0 2 0 0 0 0 5 4 0 0 0 0 1 0 0 0
F106 0 3 0 0 0 0 2 0 0 0 0 0 0 0 5 0 0 1 0 0 4
F107 0 3 0 0 0 0 2 0 0 0 0 0 0 0 0 5 0 1 0 0 4
F108 0 0 0 0 0 0 2 0 0 0 0 0 0 0 0 0 3 1 0 0 0
F109 0 3 0 0 0 0 2 0 0 0 0 0 4 0 0 0 0 1 5 0 0
F110 0 3 0 0 0 0 2 0 0 0 0 0 4 0 0 0 0 1 0 5 0
F111 0 3 5 0 0 0 0 0 0 0 0 0 2 0 0 0 0 0 1 0 4
F112 0 3 0 0 5 0 0 0 0 0 0 0 2 0 0 0 0 0 1 0 4
F113 0 3 0 0 0 0 4 0 5 0 0 0 2 0 0 0 0 0 1 0 0
F114 0 3 0 0 0 0 4 0 0 5 0 0 2 0 0 0 0 0 1 0 0
F115 0 0 0 0 0 0 0 0 0 0 3 0 2 0 0 0 0 0 1 0 0
F116 0 0 0 0 0 0 0 0 0 0 0 3 2 0 0 0 0 0 1 0 0
F117 0 3 0 0 0 0 0 0 0 0 0 0 2 0 5 0 0 0 1 0 4
F118 0 3 0 0 0 0 0 0 0 0 0 0 2 0 0 5 0 0 1 0 4
F119 0 3 0 0 0 0 4 0 0 0 0 0 2 0 0 0 5 0 1 0 0
F120 0 3 0 0 0 0 4 0 0 0 0 0 2 0 0 0 0 5 1 0 0
F121 0 0 0 0 0 0 0 0 0 0 0 0 2 0 0 0 0 0 1 3 0
F122 0 3 5 0 0 0 0 0 0 0 0 0 2 0 0 0 0 0 0 1 4
F123 0 3 0 0 5 0 0 0 0 0 0 0 2 0 0 0 0 0 0 1 4
F124 0 3 0 0 0 0 4 0 5 0 0 0 2 0 0 0 0 0 0 1 0
F125 0 3 0 0 0 0 4 0 0 5 0 0 2 0 0 0 0 0 0 1 0
F126 0 0 0 0 0 0 0 0 0 0 3 0 2 0 0 0 0 0 0 1 0
F127 0 0 0 0 0 0 0 0 0 0 0 3 2 0 0 0 0 0 0 1 0
F128 0 3 0 0 0 0 0 0 0 0 0 0 2 0 5 0 0 0 0 1 4
F129 0 3 0 0 0 0 0 0 0 0 0 0 2 0 0 5 0 0 0 1 4
F130 0 3 0 0 0 0 4 0 0 0 0 0 2 0 0 0 5 0 0 1 0
F131 0 3 0 0 0 0 4 0 0 0 0 0 2 0 0 0 0 5 0 1 0
F132 0 0 0 0 0 0 0 0 0 0 0 0 2 0 0 0 0 0 3 1 0;

param order:  STAR SQUARE CIRCLE TRIANGLE HEART DIAMOND SPADE OVAL:= 
F1 7 3 1 8 5 2 6 4
F2 6 2 1 7 4 3 8 5
F3 2 6 5 3 8 7 4 1
F4 8 4 2 7 6 1 5 3
F5 5 1 2 8 3 4 7 6
F6 1 5 3 2 7 4 8 6
F7 3 7 8 2 5 6 1 4
F8 2 3 4 7 5 6 8 1
F9 7 3 1 8 5 2 6 4
F10 6 2 1 7 4 3 8 5
F11 2 6 5 3 8 7 4 1
F12 8 4 2 7 6 1 5 3
F13 5 1 2 8 3 4 7 6
F14 1 5 3 2 7 4 8 6
F15 3 7 8 2 5 6 1 4
F16 2 3 4 7 5 6 8 1
F17 7 3 1 8 5 2 6 4
F18 6 2 1 7 4 3 8 5
F19 2 6 5 3 8 7 4 1
F20 8 4 2 7 6 1 5 3
F21 5 1 2 8 3 4 7 6
F22 1 5 3 2 7 4 8 6
F23 3 7 8 2 5 6 1 4
F24 2 3 4 7 5 6 8 1
F25 7 3 1 8 5 2 6 4
F26 6 2 1 7 4 3 8 5
F27 2 6 5 3 8 7 4 1
F28 8 4 2 7 6 1 5 3
F29 5 1 2 8 3 4 7 6
F30 1 5 3 2 7 4 8 6
F31 3 7 8 2 5 6 1 4
F32 2 3 4 7 5 6 8 1
F33 7 3 1 8 5 2 6 4
F34 6 2 1 7 4 3 8 5
F35 2 6 5 3 8 7 4 1
F36 8 4 2 7 6 1 5 3
F37 5 1 2 8 3 4 7 6
F38 1 5 3 2 7 4 8 6
F39 3 7 8 2 5 6 1 4
F40 2 3 4 7 5 6 8 1
F41 7 3 1 8 5 2 6 4
F42 6 2 1 7 4 3 8 5
F43 2 6 5 3 8 7 4 1
F44 8 4 2 7 6 1 5 3
F45 5 1 2 8 3 4 7 6
F46 1 5 3 2 7 4 8 6
F47 3 7 8 2 5 6 1 4
F48 2 3 4 7 5 6 8 1
F49 7 3 1 8 5 2 6 4
F50 6 2 1 7 4 3 8 5
F51 2 6 5 3 8 7 4 1
F52 8 4 2 7 6 1 5 3
F53 5 1 2 8 3 4 7 6
F54 1 5 3 2 7 4 8 6
F55 3 7 8 2 5 6 1 4
F56 2 3 4 7 5 6 8 1
F57 7 3 1 8 5 2 6 4
F58 6 2 1 7 4 3 8 5
F59 2 6 5 3 8 7 4 1
F60 8 4 2 7 6 1 5 3
F61 5 1 2 8 3 4 7 6
F62 1 5 3 2 7 4 8 6
F63 3 7 8 2 5 6 1 4
F64 2 3 4 7 5 6 8 1
F65 7 3 1 8 5 2 6 4
F66 6 2 1 7 4 3 8 5
F67 2 6 5 3 8 7 4 1
F68 8 4 2 7 6 1 5 3
F69 5 1 2 8 3 4 7 6
F70 1 5 3 2 7 4 8 6
F71 3 7 8 2 5 6 1 4
F72 2 3 4 7 5 6 8 1
F73 7 3 1 8 5 2 6 4
F74 6 2 1 7 4 3 8 5
F75 2 6 5 3 8 7 4 1
F76 8 4 2 7 6 1 5 3
F77 5 1 2 8 3 4 7 6
F78 1 5 3 2 7 4 8 6
F79 3 7 8 2 5 6 1 4
F80 2 3 4 7 5 6 8 1
F81 7 3 1 8 5 2 6 4
F82 6 2 1 7 4 3 8 5
F83 2 6 5 3 8 7 4 1
F84 8 4 2 7 6 1 5 3
F85 5 1 2 8 3 4 7 6
F86 1 5 3 2 7 4 8 6
F87 3 7 8 2 5 6 1 4
F88 2 3 4 7 5 6 8 1
F89 7 3 1 8 5 2 6 4
F90 6 2 1 7 4 3 8 5
F91 2 6 5 3 8 7 4 1
F92 8 4 2 7 6 1 5 3
F93 5 1 2 8 3 4 7 6
F94 1 5 3 2 7 4 8 6
F95 3 7 8 2 5 6 1 4
F96 2 3 4 7 5 6 8 1
F97 7 3 1 8 5 2 6 4
F98 6 2 1 7 4 3 8 5
F99 2 6 5 3 8 7 4 1
F100 8 4 2 7 6 1 5 3
F101 5 1 2 8 3 4 7 6
F102 1 5 3 2 7 4 8 6
F103 3 7 8 2 5 6 1 4
F104 2 3 4 7 5 6 8 1
F105 7 3 1 8 5 2 6 4
F106 6 2 1 7 4 3 8 5
F107 2 6 5 3 8 7 4 1
F108 8 4 2 7 6 1 5 3
F109 5 1 2 8 3 4 7 6
F110 1 5 3 2 7 4 8 6
F111 3 7 8 2 5 6 1 4
F112 2 3 4 7 5 6 8 1
F113 7 3 1 8 5 2 6 4
F114 6 2 1 7 4 3 8 5
F115 2 6 5 3 8 7 4 1
F116 8 4 2 7 6 1 5 3
F117 5 1 2 8 3 4 7 6
F118 1 5 3 2 7 4 8 6
F119 3 7 8 2 5 6 1 4
F120 2 3 4 7 5 6 8 1
F121 7 3 1 8 5 2 6 4
F122 6 2 1 7 4 3 8 5
F123 2 6 5 3 8 7 4 1
F124 8 4 2 7 6 1 5 3
F125 5 1 2 8 3 4 7 6
F126 1 5 3 2 7 4 8 6
F127 3 7 8 2 5 6 1 4
F128 2 3 4 7 5 6 8 1
F129 7 3 1 8 5 2 6 4
F130 6 2 1 7 4 3 8 5
F131 2 6 5 3 8 7 4 1
F132 8 4 2 7 6 1 5 3;

param rate := 
 F1 100 F2 100 F3 100 F4 100 F5 100 F6 100 F7 100 F8 100 F9 100 F10 100 F11 100 F12 100 F13 100 F14 100 F15 100 F16 100 F17 100 F18 100 F19 100 F20 100 F21 100 F22 100 F23 100 F24 100 F25 100 F26 100 F27 100 F28 100 F29 100 F30 100 F31 100 F32 100 F33 100 F34 100 F35 100 F36 100 F37 100 F38 100 F39 100 F40 100 F41 100 F42 100 F43 100 F44 100 F45 100 F46 100 F47 100 F48 100 F49 100 F50 100 F51 100 F52 100 F53 100 F54 100 F55 100 F56 100 F57 100 F58 100 F59 100 F60 100 F61 100 F62 100 F63 100 F64 100 F65 100 F66 100 F67 100 F68 100 F69 100 F70 100 F71 100 F72 100 F73 100 F74 100 F75 100 F76 100 F77 100 F78 100 F79 100 F80 100 F81 100 F82 100 F83 100 F84 100 F85 100 F86 100 F87 100 F88 100 F89 100 F90 100 F91 100 F92 100 F93 100 F94 100 F95 100 F96 100 F97 100 F98 100 F99 100 F100 100 F101 100 F102 100 F103 100 F104 100 F105 100 F106 100 F107 100 F108 100 F109 100 F110 100 F111 100 F112 100 F113 100 F114 100 F115 100 F116 100 F117 100 F118 100 F119 100 F120 100 F121 100 F122 100 F123 100 F124 100 F125 100 F126 100 F127 100 F128 100 F129 100 F130 100 F131 100 F132 100;

